__CFG_XINST$OFF 0 0 ABS 0
codeload@h 2B 0 COMRAM 1
__end_ofPL12 13A 0 CODE 0
__end_ofPL8 4D4 0 CODE 0
PL2 426 0 CODE 0
PL4 2C0 0 CODE 0
PL6 108 0 CODE 0
PL8 4CA 0 CODE 0
processLine@writeRegs 48 0 COMRAM 1
writeRegisters@i 8 0 COMRAM 1
codeload@i 2C 0 COMRAM 1
__size_of_initDevice 0 0 ABS 0
PL10 62A 0 CODE 0
PL20 556 0 CODE 0
PL30 20E 0 CODE 0
PL12 122 0 CODE 0
PL22 13A 0 CODE 0
PL32 432 0 CODE 0
PL14 540 0 CODE 0
PL24 680 0 CODE 0
PL34 5CE 0 CODE 0
PL16 63A 0 CODE 0
PL26 394 0 CODE 0
PL36 2D2 0 CODE 0
PL18 72C 0 CODE 0
PL28 692 0 CODE 0
__S0 30000E 0 ABS 0
__S1 C0 0 ABS 0
__S2 0 0 ABS 0
__end_ofPL22 14C 0 CODE 0
__Hintentry 0 0 ABS 0
__Lintentry 0 0 ABS 0
__size_of_convertCANid2Reg 0 0 ABS 0
writeFlash@writeAddr B 0 COMRAM 1
_LATB F8A 0 ABS 0
__end_ofPL32 43C 0 CODE 0
__end_of_writeFlash 2C0 0 CODE 0
pushFlash@action 5 0 COMRAM 1
_flashEnd 57 0 COMRAM 1
_main 20 0 CODE 0
convertCANid2Reg@passedInEIDL 7 0 COMRAM 1
___sp 0 0 STACK 2
start 1C 0 CODE 0
_codeload 2DC 0 CODE 0
__end_of_processLine 20E 0 CODE 0
codeload@p 28 0 COMRAM 1
__end_ofPL14 556 0 CODE 0
__Hirdata 0 0 CODE 0
__Lirdata 0 0 CODE 0
__HRAM 0 0 ABS 0
__LRAM 1 0 ABS 0
__end_ofPL24 692 0 CODE 0
__Hconfig 30000E 0 CONFIG 0
__Lconfig 300000 0 CONFIG 0
__CFG_FOSC$INTIO2 0 0 ABS 0
_programMAC 69C 0 CODE 0
__CFG_WDTEN$SWDTDIS 0 0 ABS 0
_ECAN_Receive 43C 0 CODE 0
__Hbigram 0 0 ABS 0
ECAN_Transmit@tempCanMsg B 0 COMRAM 1
__end_ofPL34 5D8 0 CODE 0
__Lbigram 0 0 ABS 0
__Hrparam 0 0 COMRAM 1
__Lrparam 0 0 COMRAM 1
__Hram 0 0 ABS 0
__Lram 0 0 ABS 0
__Hcomram 0 0 ABS 0
__Lcomram 0 0 ABS 0
__Hsfr 0 0 ABS 0
__Lsfr 0 0 ABS 0
__Hbss 0 0 RAM 1
__CFG_STVREN$ON 0 0 ABS 0
__Lbss 0 0 RAM 1
processLine@cksum 1F 0 COMRAM 1
___param_bank 0 0 ABS 0
__Hnvrram 0 0 COMRAM 1
__Lnvrram 0 0 COMRAM 1
writeFlash@i 15 0 COMRAM 1
_RXB0D0 F66 0 ABS 0
_TXB0D0 F26 0 ABS 0
_RXB0D1 F67 0 ABS 0
_TXB0D1 F27 0 ABS 0
_RXB0D2 F68 0 ABS 0
_TXB0D2 F28 0 ABS 0
_RXB0D3 F69 0 ABS 0
_TXB0D3 F29 0 ABS 0
_RXB0D4 F6A 0 ABS 0
_TXB0D4 F2A 0 ABS 0
_RXB0D5 F6B 0 ABS 0
_TXB0D5 F2B 0 ABS 0
_RXB0D6 F6C 0 ABS 0
_TXB0D6 F2C 0 ABS 0
_RXB0D7 F6D 0 ABS 0
_TXB0D7 F2D 0 ABS 0
convertReg2ExtendedCANid@ConvertedID 8 0 COMRAM 1
_TRISB1 7C99 0 ABS 0
_ANCON1 F5C 0 ABS 0
_EECON2 F7E 0 ABS 0
__end_ofPL16 642 0 CODE 0
__Heeprom_data 0 0 EEDATA 0
__Leeprom_data 0 0 EEDATA 0
__Hintsave_regs 0 0 BIGRAM 1
__Lintsave_regs 0 0 BIGRAM 1
__Hbigbss 0 0 BIGRAM 1
__Lbigbss 0 0 BIGRAM 1
__Hintret 0 0 ABS 0
__Lintret 0 0 ABS 0
__Hramtop F00 0 RAM 0
__Lramtop F00 0 RAM 0
__Hstruct 0 0 COMRAM 1
__Lstruct 0 0 COMRAM 1
__Hbigdata 0 0 BIGRAM 1
__Lbigdata 0 0 BIGRAM 1
__Hmediumconst 0 0 MEDIUMCONST 0
__Lmediumconst 0 0 MEDIUMCONST 0
__Hfarbss 0 0 FARRAM 0
__end_ofPL26 39E 0 CODE 0
__Lfarbss 0 0 FARRAM 0
__Hintcode C 0 CODE 0
__Lintcode 8 0 CODE 0
__Hfardata 0 0 FARRAM 0
__Lfardata 0 0 FARRAM 0
convertCANid2Reg@tempPassedInID 1 0 COMRAM 1
processLine@i 20 0 COMRAM 1
__CFG_MSSPMSK$MSK7 0 0 ABS 0
_CANCON F6F 0 ABS 0
_OSCCON FD3 0 ABS 0
_TABLAT FF5 0 ABS 0
__Habs1 0 0 ABS 0
__Labs1 0 0 ABS 0
__CFG_EBTR0$OFF 0 0 ABS 0
__end_ofPL36 2DC 0 CODE 0
__HnvFARRAM 0 0 FARRAM 0
convertCANid2Reg@passedInSIDL 9 0 COMRAM 1
__LnvFARRAM 0 0 FARRAM 0
_var_devid 5B 0 COMRAM 1
__CFG_EBTR1$OFF 0 0 ABS 0
_dataBlock 60 0 BANK0 1
__CFG_IDLOC0$ F 0 ABS 0
__CFG_EBTR2$OFF 0 0 ABS 0
writeFlash@bufSize 10 0 COMRAM 1
__size_of_InitECAN 0 0 ABS 0
_pushFlash 7BC 0 CODE 0
__end_ofPL18 742 0 CODE 0
_writeBuffer 642 0 CODE 0
__Hdata 0 0 ABS 0
__Ldata 0 0 ABS 0
codeload@lpp 2E 0 COMRAM 1
__CFG_EBTR3$OFF 0 0 ABS 0
__size_of_ECAN_Transmit 0 0 ABS 0
stackhi E40 0 ABS 0
__end_ofPL28 69C 0 CODE 0
_canmsg 49 0 COMRAM 1
__Htemp 0 0 COMRAM 1
__Ltemp 0 0 COMRAM 1
stacklo C0 0 ABS 0
__Hrbit 0 0 COMRAM 1
__Lrbit 0 0 COMRAM 1
__CFG_IDLOC1$ F 0 ABS 0
__Hinit 20 0 CODE 0
__Linit 1C 0 CODE 0
__Hintcodelo 1C 0 CODE 0
writeRegisters@flashWrBufPtr 6 0 COMRAM 1
__Lintcodelo 18 0 CODE 0
__Hrbss 0 0 COMRAM 1
__end_of_main 108 0 CODE 0
__Lrbss 0 0 COMRAM 1
__Htext 0 0 ABS 0
__Ltext 0 0 ABS 0
main@srcmac 34 0 COMRAM 1
end_of_initialization 77A 0 CODE 0
__CFG_INTOSCSEL$HIGH 0 0 ABS 0
__end_of_programMAC 6F0 0 CODE 0
_BRGCON1 E43 0 ABS 0
__CFG_IDLOC2$ F 0 ABS 0
writeRegisters@bufSize 7 0 COMRAM 1
_OSCCON2 FD2 0 ABS 0
_BRGCON2 E44 0 ABS 0
__end_of_InitECAN 7BC 0 CODE 0
__size_of_writeRegisters 0 0 ABS 0
_BRGCON3 E45 0 ABS 0
_RXB0DLC F65 0 ABS 0
_TXB0DLC F25 0 ABS 0
_initDevice 562 0 CODE 0
_PORTAbits F80 0 ABS 0
_PORTBbits F81 0 ABS 0
_ECAN_Transmit 39E 0 CODE 0
convertReg2ExtendedCANid@tempRXBn_EIDH 7 0 COMRAM 1
convertReg2ExtendedCANid@tempRXBn_SIDH 2 0 COMRAM 1
convertReg2ExtendedCANid@tempRXBn_EIDL 1 0 COMRAM 1
__CFG_IDLOC3$ F 0 ABS 0
convertReg2ExtendedCANid@tempRXBn_SIDL 3 0 COMRAM 1
__Hibigdata 0 0 CODE 0
__Libigdata 0 0 CODE 0
_OSCTUNE F9B 0 ABS 0
__Hifardata 0 0 CODE 0
__Lifardata 0 0 CODE 0
__Hbank0 0 0 ABS 0
__Lbank0 0 0 ABS 0
_ECANCON F72 0 ABS 0
pushFlash@addr 1 0 COMRAM 1
_REFOCON F9A 0 ABS 0
__Hbank1 0 0 ABS 0
__Lbank1 0 0 ABS 0
_TBLPTRH FF7 0 ABS 0
writeBuffer@i A 0 COMRAM 1
__Hbank2 0 0 ABS 0
__Lbank2 0 0 ABS 0
__Hbank3 0 0 ABS 0
__Lbank3 0 0 ABS 0
__Hbank4 0 0 ABS 0
__Lbank4 0 0 ABS 0
_CANSTAT F6E 0 ABS 0
__Hbank5 0 0 ABS 0
__Lbank5 0 0 ABS 0
_TBLPTRL FF6 0 ABS 0
__CFG_IDLOC4$ F 0 ABS 0
__Hpowerup 1C 0 CODE 0
__Lpowerup 1C 0 CODE 0
__Hbank6 0 0 ABS 0
__Lbank6 0 0 ABS 0
processLine@retVal 1A 0 COMRAM 1
__Hbank7 0 0 ABS 0
__Lbank7 0 0 ABS 0
__Hbank8 0 0 ABS 0
__Lbank8 0 0 ABS 0
__Htext0 0 0 ABS 0
__Ltext0 0 0 ABS 0
__Hbank9 0 0 ABS 0
__Lbank9 0 0 ABS 0
__Htext1 0 0 ABS 0
__Ltext1 0 0 ABS 0
__ptext0 20 0 CODE 0
__Htext2 0 0 ABS 0
__Ltext2 0 0 ABS 0
__ptext1 69C 0 CODE 0
__Htext3 0 0 ABS 0
__Ltext3 0 0 ABS 0
__ptext2 562 0 CODE 0
__Htext4 0 0 ABS 0
__Ltext4 0 0 ABS 0
__ptext3 784 0 CODE 0
__Htext5 0 0 ABS 0
__Ltext5 0 0 ABS 0
__ptext4 2DC 0 CODE 0
_TBLPTRU FF8 0 ABS 0
__Htext6 0 0 ABS 0
__Ltext6 0 0 ABS 0
__ptext5 14C 0 CODE 0
__Htext7 0 0 ABS 0
__Ltext7 0 0 ABS 0
__ptext6 6F0 0 CODE 0
__HbssCOMRAM 0 0 ABS 0
__LbssCOMRAM 0 0 ABS 0
programMAC@i C 0 COMRAM 1
__Htext8 0 0 ABS 0
__Ltext8 0 0 ABS 0
__ptext7 218 0 CODE 0
__pbssCOMRAM 3D 0 COMRAM 1
__Htext9 0 0 ABS 0
__Ltext9 0 0 ABS 0
__ptext8 642 0 CODE 0
__ptext9 7BC 0 CODE 0
__Hclrtext 0 0 ABS 0
__Lclrtext 0 0 ABS 0
__CFG_IDLOC5$ F 0 ABS 0
_convertReg2ExtendedCANid 4D4 0 CODE 0
convertCANid2Reg@canIdType 5 0 COMRAM 1
__end_of_convertReg2ExtendedCANid 540 0 CODE 0
_RXB0CONbits F60 0 ABS 0
_TXB0CONbits F20 0 ABS 0
__end_of__initialization 77A 0 CODE 0
_RXB1CONbits F30 0 ABS 0
___rparam_used 1 0 ABS 0
__CFG_IDLOC6$ F 0 ABS 0
__size_of_writeFlash 0 0 ABS 0
_writeRegisters 6F0 0 CODE 0
_writeFlash 218 0 CODE 0
ECAN_Receive@tempCanMsg C 0 COMRAM 1
__CFG_CANMX$PORTB 0 0 ABS 0
__size_of_codeload 0 0 ABS 0
__Hidata 0 0 CODE 0
__Lidata 0 0 CODE 0
__Hrdata 0 0 COMRAM 1
__Lrdata 0 0 COMRAM 1
_hexdata A0 0 BANK0 1
__CFG_IDLOC7$ F 0 ABS 0
__Hidloc 200008 0 IDLOC 0
__Lidloc 200000 0 IDLOC 0
codeload@finish 2A 0 COMRAM 1
__CFG_PWRTEN$OFF 0 0 ABS 0
__Hstack 0 0 STACK 2
__Lstack 0 0 STACK 2
__end_of_ECAN_Transmit 426 0 CODE 0
__Hparam 0 0 COMRAM 1
__Lparam 0 0 COMRAM 1
__Hspace_0 30000E 0 ABS 0
__HcstackCOMRAM 0 0 ABS 0
__Lspace_0 0 0 ABS 0
__LcstackCOMRAM 0 0 ABS 0
__pcstackCOMRAM 1 0 COMRAM 1
__Hspace_1 C0 0 ABS 0
__Lspace_1 0 0 ABS 0
main@lpp 39 0 COMRAM 1
__Hsmallconst 0 0 SMALLCONST 0
__Lsmallconst 0 0 SMALLCONST 0
__Hspace_2 0 0 ABS 0
__Lspace_2 0 0 ABS 0
__Hnvbit 0 0 COMRAM 1
__Lnvbit 0 0 COMRAM 1
__Hcinit 0 0 ABS 0
__Lcinit 0 0 ABS 0
__pcinit 742 0 CODE 0
__CFG_EBTRB$OFF 0 0 ABS 0
__ramtop F00 0 RAM 0
__size_of_main 0 0 ABS 0
__end_of_pushFlash 7E8 0 CODE 0
__Hconst 0 0 CONST 0
__Lconst 0 0 CONST 0
processLine@rtype 19 0 COMRAM 1
_blockStartAddr 3D 0 COMRAM 1
__CFG_PLLCFG$ON 0 0 ABS 0
__CFG_BORPWR$ZPBORMV 0 0 ABS 0
convertCANid2Reg@wipSIDL A 0 COMRAM 1
__CFG_WRT0$OFF 0 0 ABS 0
__end_of_writeRegisters 72C 0 CODE 0
__CFG_WRT1$OFF 0 0 ABS 0
__HbssBANK0 0 0 ABS 0
__LbssBANK0 0 0 ABS 0
__CFG_WRT2$OFF 0 0 ABS 0
__Hbank10 0 0 ABS 0
__pbssBANK0 60 0 BANK0 1
__Lbank10 0 0 ABS 0
__Hbank11 0 0 ABS 0
__Lbank11 0 0 ABS 0
__CFG_WRT3$OFF 0 0 ABS 0
__CFG_FCMEN$OFF 0 0 ABS 0
__Hbank12 0 0 ABS 0
__Lbank12 0 0 ABS 0
ECAN_Transmit@tempEIDH C 0 COMRAM 1
__size_of_programMAC 0 0 ABS 0
ECAN_Transmit@tempSIDH E 0 COMRAM 1
ECAN_Transmit@tempEIDL D 0 COMRAM 1
writeFlash@flashWrBufPtr F 0 COMRAM 1
ECAN_Transmit@tempSIDL F 0 COMRAM 1
__end_of_initDevice 5CE 0 CODE 0
__Hbank13 0 0 ABS 0
__Lbank13 0 0 ABS 0
__Hbank14 0 0 ABS 0
__Lbank14 0 0 ABS 0
__Htext10 0 0 ABS 0
__Ltext10 0 0 ABS 0
__ptext10 43C 0 CODE 0
__CFG_SOSCSEL$DIG 0 0 ABS 0
__Htext11 0 0 ABS 0
__Ltext11 0 0 ABS 0
__ptext11 4D4 0 CODE 0
__Htext12 0 0 ABS 0
__Ltext12 0 0 ABS 0
__ptext12 39E 0 CODE 0
__Htext13 0 0 ABS 0
__Ltext13 0 0 ABS 0
__ptext13 5D8 0 CODE 0
_EECON1bits F7F 0 ABS 0
ECAN_Transmit@p 10 0 COMRAM 1
___inthi_sp 0 0 STACK 2
convertCANid2Reg@passedInEIDH 6 0 COMRAM 1
__Hpa_nodes0 0 0 ABS 0
__Lpa_nodes0 0 0 ABS 0
_blockIndex 41 0 COMRAM 1
__CFG_RETEN$OFF 0 0 ABS 0
ECAN_Receive@retVal D 0 COMRAM 1
__size_of_ECAN_Receive 0 0 ABS 0
__CFG_BORV$3 0 0 ABS 0
___intlo_sp 0 0 STACK 2
__size_of_pushFlash 0 0 ABS 0
_CIOCONbits F70 0 ABS 0
_convertCANid2Reg 5D8 0 CODE 0
writeBuffer@addr 6 0 COMRAM 1
_INTCONbits FF2 0 ABS 0
_RXB0EIDH F63 0 ABS 0
_TXB0EIDH F23 0 ABS 0
_RXB0SIDH F61 0 ABS 0
_TXB0SIDH F21 0 ABS 0
__HidataCOMRAM 0 0 ABS 0
__LidataCOMRAM 0 0 ABS 0
__pidataCOMRAM 7E8 0 CODE 0
_RXB0EIDL F64 0 ABS 0
_TXB0EIDL F24 0 ABS 0
_var_macint 45 0 COMRAM 1
_RXB0SIDL F62 0 ABS 0
_TXB0SIDL F22 0 ABS 0
__CFG_CP0$OFF 0 0 ABS 0
__CFG_CP1$OFF 0 0 ABS 0
__Hreset_vec 4 0 CODE 0
__Lreset_vec 0 0 CODE 0
__size_of_writeBuffer 0 0 ABS 0
__CFG_CP2$OFF 0 0 ABS 0
_InitECAN 784 0 CODE 0
__CFG_CP3$OFF 0 0 ABS 0
processLine@rsize 22 0 COMRAM 1
__end_of_convertCANid2Reg 62A 0 CODE 0
__accesstop 60 0 ABS 0
__Hintcode_body 0 0 ABS 0
__Lintcode_body 0 0 ABS 0
ECAN_Receive@p E 0 COMRAM 1
intlevel0 0 0 CODE 0
intlevel1 0 0 CODE 0
__CFG_WRTB$OFF 0 0 ABS 0
intlevel2 0 0 CODE 0
_processLine 14C 0 CODE 0
intlevel3 0 0 CODE 0
__CFG_WRTC$OFF 0 0 ABS 0
__end_of_ECAN_Receive 4CA 0 CODE 0
processLine@raddr 1B 0 COMRAM 1
__CFG_WRTD$OFF 0 0 ABS 0
__end_ofPL2 432 0 CODE 0
convertCANid2Reg@passedInSIDH 8 0 COMRAM 1
__HdataCOMRAM 0 0 ABS 0
__LdataCOMRAM 0 0 ABS 0
__pdataCOMRAM 57 0 COMRAM 1
__CFG_CPB$OFF 0 0 ABS 0
__end_of_writeBuffer 680 0 CODE 0
__CFG_CPD$OFF 0 0 ABS 0
start_initialization 742 0 CODE 0
__size_of_convertReg2ExtendedCANid 0 0 ABS 0
__CFG_BOREN$SBORDIS 0 0 ABS 0
__CFG_BBSIZ$BB2K 0 0 ABS 0
__end_ofPL10 63A 0 CODE 0
__end_ofPL4 2D2 0 CODE 0
__CFG_IESO$OFF 0 0 ABS 0
__CFG_MCLRE$ON 0 0 ABS 0
__end_ofPL20 562 0 CODE 0
__CFG_WDTPS$1048576 0 0 ABS 0
__initialization 742 0 CODE 0
__size_of_processLine 0 0 ABS 0
__end_ofPL30 218 0 CODE 0
__end_ofPL6 122 0 CODE 0
__activetblptr 2 0 ABS 0
_RXF0SIDLbits EE1 0 ABS 0
_RXF1SIDLbits EE5 0 ABS 0
main@delay_count 37 0 COMRAM 1
programMAC@flashWrBufPtr B 0 COMRAM 1
?_convertReg2ExtendedCANid 1 0 COMRAM 1
__end_of_codeload 394 0 CODE 0
%segments
reset_vec 0 3 CODE 0 0
intcode 8 B CODE 8 0
intcodelo 18 7EC CODE 18 0
config 300000 30000D CONFIG 300000 0
idloc 200000 200007 IDLOC 200000 0
cstackCOMRAM 1 5B COMRAM 1 1
bssBANK0 60 BF BANK0 60 1
%locals
dist/default/production\bootloader.production.obj
C:\Program Files (x86)\Microchip\xc8\v1.41\include\pic18f45k80.h
main.c
73 8 0 CODE 0
main.c
77 18 0 CODE 0
C:\Program Files (x86)\Microchip\xc8\v1.41\include\pic18f45k80.h
C:\Users\BRYAN~1.WIL\AppData\Local\Temp\s42c.
2153 742 0 CODE 0
2155 742 0 CODE 0
2158 742 0 CODE 0
2205 742 0 CODE 0
2206 744 0 CODE 0
2207 746 0 CODE 0
2208 748 0 CODE 0
2209 74A 0 CODE 0
2210 74C 0 CODE 0
2211 74E 0 CODE 0
2212 752 0 CODE 0
2213 756 0 CODE 0
2214 756 0 CODE 0
2215 758 0 CODE 0
2216 75C 0 CODE 0
2217 75E 0 CODE 0
2218 760 0 CODE 0
2222 762 0 CODE 0
2223 766 0 CODE 0
2224 768 0 CODE 0
2225 768 0 CODE 0
2226 76A 0 CODE 0
2227 76C 0 CODE 0
2230 76E 0 CODE 0
2231 772 0 CODE 0
2232 774 0 CODE 0
2233 774 0 CODE 0
2234 776 0 CODE 0
2235 778 0 CODE 0
2241 77A 0 CODE 0
2244 77A 0 CODE 0
2245 77C 0 CODE 0
2246 77E 0 CODE 0
2247 780 0 CODE 0
main.c
124 20 0 CODE 0
126 20 0 CODE 0
138 26 0 CODE 0
144 2A 0 CODE 0
146 38 0 CODE 0
150 44 0 CODE 0
152 54 0 CODE 0
157 5A 0 CODE 0
158 62 0 CODE 0
159 66 0 CODE 0
160 6A 0 CODE 0
162 6C 0 CODE 0
163 6C 0 CODE 0
164 70 0 CODE 0
165 74 0 CODE 0
166 78 0 CODE 0
170 7A 0 CODE 0
175 7E 0 CODE 0
184 84 0 CODE 0
189 A8 0 CODE 0
190 AC 0 CODE 0
191 B0 0 CODE 0
193 B4 0 CODE 0
195 B8 0 CODE 0
196 BC 0 CODE 0
197 C0 0 CODE 0
202 C6 0 CODE 0
207 CA 0 CODE 0
210 CE 0 CODE 0
154 D2 0 CODE 0
219 E0 0 CODE 0
221 E8 0 CODE 0
223 102 0 CODE 0
main.c
561 69C 0 CODE 0
565 69C 0 CODE 0
569 6A0 0 CODE 0
570 6A2 0 CODE 0
571 6A2 0 CODE 0
572 6A4 0 CODE 0
569 6B0 0 CODE 0
575 6B8 0 CODE 0
576 6C4 0 CODE 0
577 6D0 0 CODE 0
579 6DE 0 CODE 0
main.c
364 562 0 CODE 0
368 562 0 CODE 0
369 566 0 CODE 0
370 568 0 CODE 0
371 56A 0 CODE 0
377 56C 0 CODE 0
378 56E 0 CODE 0
380 570 0 CODE 0
382 574 0 CODE 0
384 578 0 CODE 0
385 5A6 0 CODE 0
388 5B0 0 CODE 0
396 5B6 0 CODE 0
397 5B8 0 CODE 0
398 5BC 0 CODE 0
399 5BE 0 CODE 0
400 5C2 0 CODE 0
401 5C4 0 CODE 0
403 5C8 0 CODE 0
404 5CA 0 CODE 0
405 5CC 0 CODE 0
ecan.c
31 784 0 CODE 0
33 784 0 CODE 0
34 788 0 CODE 0
38 790 0 CODE 0
39 792 0 CODE 0
41 794 0 CODE 0
42 796 0 CODE 0
43 798 0 CODE 0
44 79C 0 CODE 0
49 79E 0 CODE 0
50 7A2 0 CODE 0
62 7A4 0 CODE 0
63 7A6 0 CODE 0
64 7AA 0 CODE 0
66 7AE 0 CODE 0
67 7B0 0 CODE 0
68 7BA 0 CODE 0
main.c
237 2DC 0 CODE 0
241 2DC 0 CODE 0
243 2E0 0 CODE 0
247 2E2 0 CODE 0
253 2E8 0 CODE 0
255 2EA 0 CODE 0
259 2F6 0 CODE 0
261 308 0 CODE 0
268 318 0 CODE 0
270 33C 0 CODE 0
272 37E 0 CODE 0
275 384 0 CODE 0
276 38A 0 CODE 0
253 38E 0 CODE 0
282 392 0 CODE 0
main.c
292 14C 0 CODE 0
294 14C 0 CODE 0
296 14E 0 CODE 0
297 150 0 CODE 0
298 152 0 CODE 0
299 154 0 CODE 0
302 15C 0 CODE 0
303 160 0 CODE 0
304 164 0 CODE 0
305 168 0 CODE 0
309 16C 0 CODE 0
310 16E 0 CODE 0
311 19E 0 CODE 0
313 1A2 0 CODE 0
318 1AA 0 CODE 0
320 1AE 0 CODE 0
321 1BA 0 CODE 0
322 1BC 0 CODE 0
323 1BE 0 CODE 0
328 1DC 0 CODE 0
329 1E0 0 CODE 0
334 1E2 0 CODE 0
336 1F0 0 CODE 0
339 1F4 0 CODE 0
341 1F8 0 CODE 0
315 1FA 0 CODE 0
347 208 0 CODE 0
350 208 0 CODE 0
354 20A 0 CODE 0
355 20C 0 CODE 0
main.c
415 6F0 0 CODE 0
423 6F0 0 CODE 0
425 6F4 0 CODE 0
427 702 0 CODE 0
428 706 0 CODE 0
429 708 0 CODE 0
431 70C 0 CODE 0
432 714 0 CODE 0
437 716 0 CODE 0
423 722 0 CODE 0
439 72A 0 CODE 0
main.c
484 218 0 CODE 0
492 218 0 CODE 0
494 242 0 CODE 0
497 248 0 CODE 0
499 24C 0 CODE 0
500 276 0 CODE 0
503 286 0 CODE 0
505 28A 0 CODE 0
507 2A4 0 CODE 0
511 2B2 0 CODE 0
503 2B6 0 CODE 0
514 2BE 0 CODE 0
main.c
451 642 0 CODE 0
455 644 0 CODE 0
457 64C 0 CODE 0
458 650 0 CODE 0
459 654 0 CODE 0
461 658 0 CODE 0
463 65A 0 CODE 0
464 660 0 CODE 0
465 662 0 CODE 0
461 66C 0 CODE 0
468 674 0 CODE 0
470 676 0 CODE 0
main.c
523 7BC 0 CODE 0
530 7BC 0 CODE 0
532 7C0 0 CODE 0
533 7C4 0 CODE 0
534 7C8 0 CODE 0
536 7CC 0 CODE 0
537 7CE 0 CODE 0
539 7CE 0 CODE 0
540 7D0 0 CODE 0
541 7D2 0 CODE 0
543 7D4 0 CODE 0
544 7D6 0 CODE 0
545 7DA 0 CODE 0
546 7DE 0 CODE 0
547 7E0 0 CODE 0
548 7E2 0 CODE 0
550 7E4 0 CODE 0
ecan.c
75 43C 0 CODE 0
77 43C 0 CODE 0
78 43E 0 CODE 0
80 444 0 CODE 0
82 448 0 CODE 0
85 44C 0 CODE 0
86 456 0 CODE 0
88 480 0 CODE 0
89 48A 0 CODE 0
90 496 0 CODE 0
91 49C 0 CODE 0
92 4A2 0 CODE 0
93 4A8 0 CODE 0
94 4AE 0 CODE 0
95 4B4 0 CODE 0
96 4BA 0 CODE 0
98 4C0 0 CODE 0
101 4C4 0 CODE 0
106 4C6 0 CODE 0
107 4C8 0 CODE 0
ecan.c
144 4D4 0 CODE 0
148 4D6 0 CODE 0
149 500 0 CODE 0
150 508 0 CODE 0
151 518 0 CODE 0
153 522 0 CODE 0
155 52A 0 CODE 0
157 52E 0 CODE 0
158 53E 0 CODE 0
ecan.c
114 39E 0 CODE 0
116 39E 0 CODE 0
117 3A0 0 CODE 0
118 3A2 0 CODE 0
119 3A4 0 CODE 0
120 3A6 0 CODE 0
122 3AC 0 CODE 0
124 3E2 0 CODE 0
125 3E6 0 CODE 0
126 3EA 0 CODE 0
127 3EE 0 CODE 0
129 3F2 0 CODE 0
130 3FC 0 CODE 0
131 408 0 CODE 0
132 40C 0 CODE 0
133 410 0 CODE 0
134 414 0 CODE 0
135 418 0 CODE 0
136 41C 0 CODE 0
137 420 0 CODE 0
139 422 0 CODE 0
142 424 0 CODE 0
ecan.c
160 5D8 0 CODE 0
163 5D8 0 CODE 0
166 5E0 0 CODE 0
167 5E6 0 CODE 0
170 5E8 0 CODE 0
175 5F0 0 CODE 0
176 5F6 0 CODE 0
177 606 0 CODE 0
178 60C 0 CODE 0
179 610 0 CODE 0
183 61E 0 CODE 0
185 628 0 CODE 0
